{
  "configVersion": 2,
  "packages": [
    {
      "name": "archive",
      "rootUri": "file:///home/hoangntbn/snap/flutter/common/flutter/.pub-cache/hosted/pub.dartlang.org/archive-3.1.6",
      "packageUri": "lib/",
      "languageVersion": "2.12"
    },
    {
      "name": "async",
      "rootUri": "file:///home/hoangntbn/snap/flutter/common/flutter/.pub-cache/hosted/pub.dartlang.org/async-2.8.2",
      "packageUri": "lib/",
      "languageVersion": "2.12"
    },
    {
      "name": "boolean_selector",
      "rootUri": "file:///home/hoangntbn/snap/flutter/common/flutter/.pub-cache/hosted/pub.dartlang.org/boolean_selector-2.1.0",
      "packageUri": "lib/",
      "languageVersion": "2.12"
    },
    {
      "name": "camera",
      "rootUri": "file:///home/hoangntbn/snap/flutter/common/flutter/.pub-cache/hosted/pub.dartlang.org/camera-0.8.1+7",
      "packageUri": "lib/",
      "languageVersion": "2.12"
    },
    {
      "name": "camera_platform_interface",
      "rootUri": "file:///home/hoangntbn/snap/flutter/common/flutter/.pub-cache/hosted/pub.dartlang.org/camera_platform_interface-2.1.1",
      "packageUri": "lib/",
      "languageVersion": "2.12"
    },
    {
      "name": "characters",
      "rootUri": "file:///home/hoangntbn/snap/flutter/common/flutter/.pub-cache/hosted/pub.dartlang.org/characters-1.2.0",
      "packageUri": "lib/",
      "languageVersion": "2.12"
    },
    {
      "name": "charcode",
      "rootUri": "file:///home/hoangntbn/snap/flutter/common/flutter/.pub-cache/hosted/pub.dartlang.org/charcode-1.3.1",
      "packageUri": "lib/",
      "languageVersion": "2.12"
    },
    {
      "name": "clock",
      "rootUri": "file:///home/hoangntbn/snap/flutter/common/flutter/.pub-cache/hosted/pub.dartlang.org/clock-1.1.0",
      "packageUri": "lib/",
      "languageVersion": "2.12"
    },
    {
      "name": "collection",
      "rootUri": "file:///home/hoangntbn/snap/flutter/common/flutter/.pub-cache/hosted/pub.dartlang.org/collection-1.15.0",
      "packageUri": "lib/",
      "languageVersion": "2.12"
    },
    {
      "name": "cross_file",
      "rootUri": "file:///home/hoangntbn/snap/flutter/common/flutter/.pub-cache/hosted/pub.dartlang.org/cross_file-0.3.2",
      "packageUri": "lib/",
      "languageVersion": "2.12"
    },
    {
      "name": "crypto",
      "rootUri": "file:///home/hoangntbn/snap/flutter/common/flutter/.pub-cache/hosted/pub.dartlang.org/crypto-3.0.1",
      "packageUri": "lib/",
      "languageVersion": "2.12"
    },
    {
      "name": "cupertino_icons",
      "rootUri": "file:///home/hoangntbn/snap/flutter/common/flutter/.pub-cache/hosted/pub.dartlang.org/cupertino_icons-1.0.4",
      "packageUri": "lib/",
      "languageVersion": "2.12"
    },
    {
      "name": "fake_async",
      "rootUri": "file:///home/hoangntbn/snap/flutter/common/flutter/.pub-cache/hosted/pub.dartlang.org/fake_async-1.2.0",
      "packageUri": "lib/",
      "languageVersion": "2.12"
    },
    {
      "name": "ffi",
      "rootUri": "file:///home/hoangntbn/snap/flutter/common/flutter/.pub-cache/hosted/pub.dartlang.org/ffi-1.1.2",
      "packageUri": "lib/",
      "languageVersion": "2.12"
    },
    {
      "name": "file",
      "rootUri": "file:///home/hoangntbn/snap/flutter/common/flutter/.pub-cache/hosted/pub.dartlang.org/file-6.1.2",
      "packageUri": "lib/",
      "languageVersion": "2.12"
    },
    {
      "name": "flutter",
      "rootUri": "file:///home/hoangntbn/snap/flutter/common/flutter/packages/flutter",
      "packageUri": "lib/",
      "languageVersion": "2.12"
    },
    {
      "name": "flutter_hooks",
      "rootUri": "file:///home/hoangntbn/snap/flutter/common/flutter/.pub-cache/hosted/pub.dartlang.org/flutter_hooks-0.18.1",
      "packageUri": "lib/",
      "languageVersion": "2.12"
    },
    {
      "name": "flutter_lints",
      "rootUri": "file:///home/hoangntbn/snap/flutter/common/flutter/.pub-cache/hosted/pub.dartlang.org/flutter_lints-1.0.4",
      "packageUri": "lib/",
      "languageVersion": "2.12"
    },
    {
      "name": "flutter_riverpod",
      "rootUri": "file:///home/hoangntbn/snap/flutter/common/flutter/.pub-cache/hosted/pub.dartlang.org/flutter_riverpod-1.0.3",
      "packageUri": "lib/",
      "languageVersion": "2.14"
    },
    {
      "name": "flutter_test",
      "rootUri": "file:///home/hoangntbn/snap/flutter/common/flutter/packages/flutter_test",
      "packageUri": "lib/",
      "languageVersion": "2.12"
    },
    {
      "name": "hooks_riverpod",
      "rootUri": "file:///home/hoangntbn/snap/flutter/common/flutter/.pub-cache/hosted/pub.dartlang.org/hooks_riverpod-1.0.3",
      "packageUri": "lib/",
      "languageVersion": "2.14"
    },
    {
      "name": "image",
      "rootUri": "file:///home/hoangntbn/snap/flutter/common/flutter/.pub-cache/hosted/pub.dartlang.org/image-3.1.0",
      "packageUri": "lib/",
      "languageVersion": "2.12"
    },
    {
      "name": "js",
      "rootUri": "file:///home/hoangntbn/snap/flutter/common/flutter/.pub-cache/hosted/pub.dartlang.org/js-0.6.3",
      "packageUri": "lib/",
      "languageVersion": "2.12"
    },
    {
      "name": "lints",
      "rootUri": "file:///home/hoangntbn/snap/flutter/common/flutter/.pub-cache/hosted/pub.dartlang.org/lints-1.0.1",
      "packageUri": "lib/",
      "languageVersion": "2.12"
    },
    {
      "name": "logging",
      "rootUri": "file:///home/hoangntbn/snap/flutter/common/flutter/.pub-cache/hosted/pub.dartlang.org/logging-1.0.2",
      "packageUri": "lib/",
      "languageVersion": "2.12"
    },
    {
      "name": "matcher",
      "rootUri": "file:///home/hoangntbn/snap/flutter/common/flutter/.pub-cache/hosted/pub.dartlang.org/matcher-0.12.11",
      "packageUri": "lib/",
      "languageVersion": "2.12"
    },
    {
      "name": "meta",
      "rootUri": "file:///home/hoangntbn/snap/flutter/common/flutter/.pub-cache/hosted/pub.dartlang.org/meta-1.7.0",
      "packageUri": "lib/",
      "languageVersion": "2.12"
    },
    {
      "name": "ml_linalg",
      "rootUri": "file:///home/hoangntbn/snap/flutter/common/flutter/.pub-cache/hosted/pub.dartlang.org/ml_linalg-13.5.0",
      "packageUri": "lib/",
      "languageVersion": "2.12"
    },
    {
      "name": "path",
      "rootUri": "file:///home/hoangntbn/snap/flutter/common/flutter/.pub-cache/hosted/pub.dartlang.org/path-1.8.0",
      "packageUri": "lib/",
      "languageVersion": "2.12"
    },
    {
      "name": "path_provider",
      "rootUri": "file:///home/hoangntbn/snap/flutter/common/flutter/.pub-cache/hosted/pub.dartlang.org/path_provider-2.0.8",
      "packageUri": "lib/",
      "languageVersion": "2.14"
    },
    {
      "name": "path_provider_android",
      "rootUri": "file:///home/hoangntbn/snap/flutter/common/flutter/.pub-cache/hosted/pub.dartlang.org/path_provider_android-2.0.9",
      "packageUri": "lib/",
      "languageVersion": "2.14"
    },
    {
      "name": "path_provider_ios",
      "rootUri": "file:///home/hoangntbn/snap/flutter/common/flutter/.pub-cache/hosted/pub.dartlang.org/path_provider_ios-2.0.7",
      "packageUri": "lib/",
      "languageVersion": "2.14"
    },
    {
      "name": "path_provider_linux",
      "rootUri": "file:///home/hoangntbn/snap/flutter/common/flutter/.pub-cache/hosted/pub.dartlang.org/path_provider_linux-2.1.4",
      "packageUri": "lib/",
      "languageVersion": "2.12"
    },
    {
      "name": "path_provider_macos",
      "rootUri": "file:///home/hoangntbn/snap/flutter/common/flutter/.pub-cache/hosted/pub.dartlang.org/path_provider_macos-2.0.4",
      "packageUri": "lib/",
      "languageVersion": "2.12"
    },
    {
      "name": "path_provider_platform_interface",
      "rootUri": "file:///home/hoangntbn/snap/flutter/common/flutter/.pub-cache/hosted/pub.dartlang.org/path_provider_platform_interface-2.0.1",
      "packageUri": "lib/",
      "languageVersion": "2.12"
    },
    {
      "name": "path_provider_windows",
      "rootUri": "file:///home/hoangntbn/snap/flutter/common/flutter/.pub-cache/hosted/pub.dartlang.org/path_provider_windows-2.0.4",
      "packageUri": "lib/",
      "languageVersion": "2.12"
    },
    {
      "name": "pedantic",
      "rootUri": "file:///home/hoangntbn/snap/flutter/common/flutter/.pub-cache/hosted/pub.dartlang.org/pedantic-1.11.1",
      "packageUri": "lib/",
      "languageVersion": "2.12"
    },
    {
      "name": "petitparser",
      "rootUri": "file:///home/hoangntbn/snap/flutter/common/flutter/.pub-cache/hosted/pub.dartlang.org/petitparser-4.4.0",
      "packageUri": "lib/",
      "languageVersion": "2.14"
    },
    {
      "name": "platform",
      "rootUri": "file:///home/hoangntbn/snap/flutter/common/flutter/.pub-cache/hosted/pub.dartlang.org/platform-3.1.0",
      "packageUri": "lib/",
      "languageVersion": "2.12"
    },
    {
      "name": "plugin_platform_interface",
      "rootUri": "file:///home/hoangntbn/snap/flutter/common/flutter/.pub-cache/hosted/pub.dartlang.org/plugin_platform_interface-2.0.2",
      "packageUri": "lib/",
      "languageVersion": "2.12"
    },
    {
      "name": "process",
      "rootUri": "file:///home/hoangntbn/snap/flutter/common/flutter/.pub-cache/hosted/pub.dartlang.org/process-4.2.4",
      "packageUri": "lib/",
      "languageVersion": "2.14"
    },
    {
      "name": "quiver",
      "rootUri": "file:///home/hoangntbn/snap/flutter/common/flutter/.pub-cache/hosted/pub.dartlang.org/quiver-3.0.1+1",
      "packageUri": "lib/",
      "languageVersion": "2.12"
    },
    {
      "name": "riverpod",
      "rootUri": "file:///home/hoangntbn/snap/flutter/common/flutter/.pub-cache/hosted/pub.dartlang.org/riverpod-1.0.3",
      "packageUri": "lib/",
      "languageVersion": "2.14"
    },
    {
      "name": "simple_logger",
      "rootUri": "file:///home/hoangntbn/snap/flutter/common/flutter/.pub-cache/hosted/pub.dartlang.org/simple_logger-1.9.0",
      "packageUri": "lib/",
      "languageVersion": "2.12"
    },
    {
      "name": "sky_engine",
      "rootUri": "file:///home/hoangntbn/snap/flutter/common/flutter/bin/cache/pkg/sky_engine",
      "packageUri": "lib/",
      "languageVersion": "2.12"
    },
    {
      "name": "source_span",
      "rootUri": "file:///home/hoangntbn/snap/flutter/common/flutter/.pub-cache/hosted/pub.dartlang.org/source_span-1.8.1",
      "packageUri": "lib/",
      "languageVersion": "2.12"
    },
    {
      "name": "stack_trace",
      "rootUri": "file:///home/hoangntbn/snap/flutter/common/flutter/.pub-cache/hosted/pub.dartlang.org/stack_trace-1.10.0",
      "packageUri": "lib/",
      "languageVersion": "2.12"
    },
    {
      "name": "state_notifier",
      "rootUri": "file:///home/hoangntbn/snap/flutter/common/flutter/.pub-cache/hosted/pub.dartlang.org/state_notifier-0.7.1",
      "packageUri": "lib/",
      "languageVersion": "2.12"
    },
    {
      "name": "stream_channel",
      "rootUri": "file:///home/hoangntbn/snap/flutter/common/flutter/.pub-cache/hosted/pub.dartlang.org/stream_channel-2.1.0",
      "packageUri": "lib/",
      "languageVersion": "2.12"
    },
    {
      "name": "stream_transform",
      "rootUri": "file:///home/hoangntbn/snap/flutter/common/flutter/.pub-cache/hosted/pub.dartlang.org/stream_transform-2.0.0",
      "packageUri": "lib/",
      "languageVersion": "2.12"
    },
    {
      "name": "string_scanner",
      "rootUri": "file:///home/hoangntbn/snap/flutter/common/flutter/.pub-cache/hosted/pub.dartlang.org/string_scanner-1.1.0",
      "packageUri": "lib/",
      "languageVersion": "2.12"
    },
    {
      "name": "term_glyph",
      "rootUri": "file:///home/hoangntbn/snap/flutter/common/flutter/.pub-cache/hosted/pub.dartlang.org/term_glyph-1.2.0",
      "packageUri": "lib/",
      "languageVersion": "2.12"
    },
    {
      "name": "test_api",
      "rootUri": "file:///home/hoangntbn/snap/flutter/common/flutter/.pub-cache/hosted/pub.dartlang.org/test_api-0.4.3",
      "packageUri": "lib/",
      "languageVersion": "2.12"
    },
    {
      "name": "tflite_flutter",
      "rootUri": "file:///home/hoangntbn/snap/flutter/common/flutter/.pub-cache/hosted/pub.dartlang.org/tflite_flutter-0.9.0",
      "packageUri": "lib/",
      "languageVersion": "2.12"
    },
    {
      "name": "tflite_flutter_helper",
      "rootUri": "file:///home/hoangntbn/snap/flutter/common/flutter/.pub-cache/hosted/pub.dartlang.org/tflite_flutter_helper-0.3.0",
      "packageUri": "lib/",
      "languageVersion": "2.12"
    },
    {
      "name": "tuple",
      "rootUri": "file:///home/hoangntbn/snap/flutter/common/flutter/.pub-cache/hosted/pub.dartlang.org/tuple-2.0.0",
      "packageUri": "lib/",
      "languageVersion": "2.12"
    },
    {
      "name": "typed_data",
      "rootUri": "file:///home/hoangntbn/snap/flutter/common/flutter/.pub-cache/hosted/pub.dartlang.org/typed_data-1.3.0",
      "packageUri": "lib/",
      "languageVersion": "2.12"
    },
    {
      "name": "vector_math",
      "rootUri": "file:///home/hoangntbn/snap/flutter/common/flutter/.pub-cache/hosted/pub.dartlang.org/vector_math-2.1.1",
      "packageUri": "lib/",
      "languageVersion": "2.14"
    },
    {
      "name": "win32",
      "rootUri": "file:///home/hoangntbn/snap/flutter/common/flutter/.pub-cache/hosted/pub.dartlang.org/win32-2.3.1",
      "packageUri": "lib/",
      "languageVersion": "2.14"
    },
    {
      "name": "xdg_directories",
      "rootUri": "file:///home/hoangntbn/snap/flutter/common/flutter/.pub-cache/hosted/pub.dartlang.org/xdg_directories-0.2.0",
      "packageUri": "lib/",
      "languageVersion": "2.12"
    },
    {
      "name": "xml",
      "rootUri": "file:///home/hoangntbn/snap/flutter/common/flutter/.pub-cache/hosted/pub.dartlang.org/xml-5.3.1",
      "packageUri": "lib/",
      "languageVersion": "2.14"
    },
    {
      "name": "flutter_yolov5_app",
      "rootUri": "../",
      "packageUri": "lib/",
      "languageVersion": "2.12"
    }
  ],
  "generated": "2022-03-23T10:26:05.414657Z",
  "generator": "pub",
  "generatorVersion": "2.15.1"
}
